[
  {
    "endpoint": "/mock/active/page/1",
    "backend": [
      {
        "host": [
          "http://ovz5.j1121565.m719m.vps.myjino.ru/"
        ]
      }
    ],
    "extra_config": {
      "github.com/devopsfaith/krakend/proxy": {
        "static": {
          "strategy": "errored",
          "data": {
            "data": [
              {
                "id": 1,
                "dateFrom": "2021-09-15T04:26:19.004867",
                "dateTo": null,
                "sum": 1000.0,
                "total": 5001.0,
                "title": "Ежемесячный индивидуальный челлендж по продаже кофе"
              },
              {
                "id": 2,
                "dateFrom": "2021-09-15T04:26:19.007118",
                "dateTo": null,
                "sum": 1000.0,
                "total": 5002.0,
                "title": "Ежемесячный индивидуальный челлендж по продаже кофе"
              },
              {
                "id": 3,
                "dateFrom": "2021-09-15T04:26:19.007145",
                "dateTo": null,
                "sum": 1000.0,
                "total": 5003.0,
                "title": "Ежемесячный командный челлендж по продаже кофе"
              },
              {
                "id": 4,
                "dateFrom": "2021-09-15T04:26:19.007382",
                "dateTo": null,
                "sum": 1000.0,
                "total": 5004.0,
                "title": "Ежемесячный командный челлендж по продаже кофе"
              },
              {
                "id": 5,
                "dateFrom": "2021-09-15T04:26:19.011737",
                "dateTo": null,
                "sum": 1000.0,
                "total": 5005.0,
                "title": "Ежемесячный индивидуальный челлендж по продаже кофе"
              },
              {
                "id": 6,
                "dateFrom": "2021-09-15T04:26:19.012316",
                "dateTo": null,
                "sum": 1000.0,
                "total": 5006.0,
                "title": "Ежемесячный индивидуальный челлендж по продаже кофе"
              },
              {
                "id": 7,
                "dateFrom": "2021-09-15T04:26:19.012438",
                "dateTo": null,
                "sum": 1000.0,
                "total": 5007.0,
                "title": "Ежемесячный командный челлендж по продаже кофе"
              },
              {
                "id": 8,
                "dateFrom": "2021-09-15T04:26:19.012696",
                "dateTo": null,
                "sum": 1000.0,
                "total": 5008.0,
                "title": "Ежемесячный командный челлендж по продаже кофе"
              },
              {
                "id": 9,
                "dateFrom": "2021-09-15T04:26:19.012724",
                "dateTo": null,
                "sum": 1000.0,
                "total": 5009.0,
                "title": "Средний чек - 980"
              },
              {
                "id": 10,
                "dateFrom": "2021-09-15T04:26:19.015006",
                "dateTo": null,
                "sum": 1000.0,
                "total": 5010.0,
                "title": "Самый большой средний чек"
              }
            ],
            "meta": {
              "currentPage": 1,
              "lastPage": 3,
              "total": 24
            }
          }
        }
      }
    }
  },
  {
    "endpoint": "/mock/active/page/2",
    "backend": [
      {
        "host": [
          "http://ovz5.j1121565.m719m.vps.myjino.ru/"
        ]
      }
    ],
    "extra_config": {
      "github.com/devopsfaith/krakend/proxy": {
        "static": {
          "strategy": "errored",
          "data": {
            "data": [
              {
                "id": 11,
                "dateFrom": "2021-09-15T04:26:19.015244",
                "dateTo": null,
                "sum": 1000.0,
                "total": 5011.0,
                "title": "Средний чек команды - 980"
              },
              {
                "id": 12,
                "dateFrom": "2021-09-15T04:26:19.015534",
                "dateTo": null,
                "sum": 1000.0,
                "total": 5012.0,
                "title": "Самый большой средний чек (команда)"
              },
              {
                "id": 13,
                "dateFrom": "2021-09-15T04:26:19.015557",
                "dateTo": null,
                "sum": 1000.0,
                "total": 5013.0,
                "title": "Конверсия по сумме 25%"
              },
              {
                "id": 14,
                "dateFrom": "2021-09-15T04:26:19.015748",
                "dateTo": null,
                "sum": 1000.0,
                "total": 5014.0,
                "title": "Лучшая конверсия по сумме в сентябре - ноябре 2021"
              },
              {
                "id": 15,
                "dateFrom": "2021-09-15T04:26:19.016059",
                "dateTo": null,
                "sum": 1000.0,
                "total": 5015.0,
                "title": "Конверсия по сумме 25%"
              },
              {
                "id": 16,
                "dateFrom": "2021-09-15T04:26:19.016081",
                "dateTo": null,
                "sum": 1000.0,
                "total": 5016.0,
                "title": "Лучшая конверсия по сумме в сентябре - ноябре 2021 (команда)"
              },
              {
                "id": 17,
                "dateFrom": "2021-09-15T04:26:19.016099",
                "dateTo": null,
                "sum": 1000.0,
                "total": 5017.0,
                "title": "Конверсия по количеству 25%"
              },
              {
                "id": 18,
                "dateFrom": "2021-09-15T04:26:19.016267",
                "dateTo": null,
                "sum": 1000.0,
                "total": 5018.0,
                "title": "Лучшая конверсия по количеству в сентябре 2021"
              },
              {
                "id": 19,
                "dateFrom": "2021-09-15T04:26:19.016427",
                "dateTo": null,
                "sum": 1000.0,
                "total": 5019.0,
                "title": "Конверсия по количеству 25%"
              },
              {
                "id": 20,
                "dateFrom": "2021-09-15T04:26:19.016447",
                "dateTo": null,
                "sum": 1000.0,
                "total": 5020.0,
                "title": "Лучшая конверсия по количеству в сентябре 2021"
              }
            ],
            "meta": {
              "currentPage": 2,
              "lastPage": 3,
              "total": 24
            }
          }
        }
      }
    }
  },
  {
    "endpoint": "/mock/active/page/3",
    "backend": [
      {
        "host": [
          "http://ovz5.j1121565.m719m.vps.myjino.ru/"
        ]
      }
    ],
    "extra_config": {
      "github.com/devopsfaith/krakend/proxy": {
        "static": {
          "strategy": "errored",
          "data": {
            "data": [
              {
                "id": 1,
                "dateFrom": "2021-09-15T04:26:19.023878",
                "dateTo": null,
                "sum": 1000.0,
                "total": 1000.0,
                "title": "Ежемесячный групповой челлендж по продаже кофе"
              },
              {
                "id": 2,
                "dateFrom": "2021-09-15T10:28:19.023928",
                "dateTo": null,
                "sum": 100000.0,
                "total": 100000.0,
                "title": "Ежемесячный групповой челлендж по продаже кофе"
              },
              {
                "id": 3,
                "dateFrom": "2021-09-15T10:28:19.023973",
                "dateTo": null,
                "sum": 10000.0,
                "total": 10000.0,
                "title": "Ваш звездный час, операторы"
              },
              {
                "id": 4,
                "dateFrom": "2021-09-15T10:28:19.024013",
                "dateTo": null,
                "sum": 10000.0,
                "total": 10000.0,
                "title": "А ну-ка, девушки!"
              }
            ],
            "meta": {
              "currentPage": 3,
              "lastPage": 3,
              "total": 24
            }
          }
        }
      }
    }
  }
]